	16.903611 -100.005833
	16.960833 -100.196111
	17.036389 -100.366667
	17.101389 -100.551667
	17.162778 -100.728333
	17.222222 -100.920278
	17.300278 -101.051389
	17.404722 -101.183889
	17.489722 -101.341389
	17.593056 -101.462500
	17.657778 -101.612500
	17.781389 -101.718889
	17.901667 -101.821111
	17.985000 -101.980833
	17.921389 -102.140000
	17.971667 -102.328611
	18.022500 -102.518056
	18.059167 -102.720278
	18.128889 -102.898056
	18.197500 -103.075278
	18.253889 -103.268889
	18.311944 -103.444444
	18.442778 -103.541389
	18.560278 -103.656111
	18.676389 -103.728889
	18.782222 -103.860000
	18.888056 -103.990278
	18.954444 -104.172222
	19.026944 -104.331389
	19.090833 -104.403333
	19.141389 -104.567778
	19.222500 -104.728611
	19.297778 -104.828889
	19.339444 -104.983611
	19.475556 -105.065278
	19.595000 -105.160833
	19.705833 -105.285000
		19.831944 -105.377778
	19.961944 -105.478611
	20.116111 -105.548611
	20.275833 -105.610556
	20.424167 -105.676944
	20.493056 -105.515833
	20.525833 -105.322778
	20.657500 -105.245556
	20.771667 -105.358611
	20.780000 -105.534722
	20.886111 -105.438056
	21.010000 -105.325278
	21.140833 -105.222500
	21.322222 -105.230833
	21.478333 -105.193611
	21.558611 -105.338056
	21.678056 -105.451667
	21.820556 -105.527222
	21.951111 -105.628056
	22.140833 -105.645833
	22.342778 -105.649722
	22.482778 -105.725556
	22.586944 -105.772778
	22.711667 -105.881667
	22.826389 -106.000556
	22.891667 -106.083333
	23.017222 -106.191944
	23.128056 -106.320000
	23.227778 -106.429167
	23.358611 -106.495833
	23.473611 -106.618889
	23.599722 -106.724444
	23.721944 -106.837500
	23.868889 -106.919167
	23.982778 -107.043056
	24.078889 -107.183889
	24.176111 -107.328056
	24.278333 -107.463333
	24.380000 -107.604167
	24.467222 -107.756389
	24.459167 -107.712500
	24.370833 -107.554444
	24.371111 -107.518056
	24.471389 -107.505556
	24.508333 -107.551667
	24.494167 -107.681389
	24.587222 -107.808333
	24.604167 -107.904722
	24.545278 -107.849722
	24.645278 -107.992222
	24.788611 -108.044722
	24.834444 -108.009722
	24.982500 -108.011944
	24.863056 -108.036944
	24.878889 -108.148056
	25.027500 -108.228611
	25.102500 -108.278611
	24.978889 -108.168889
	25.057222 -108.135833
	25.021389 -108.002778
	25.119444 -108.130000
	25.158889 -108.256667
	25.186667 -108.314444
	25.185000 -108.380833
	25.260000 -108.432778
	25.332778 -108.601111
	25.363333 -108.649167
	25.393889 -108.696111
	25.438333 -108.744444
	25.536111 -108.790278
	25.513333 -108.876667
	25.498333 -108.979167
	25.517222 -109.095833
	25.538056 -108.989167
	25.670000 -108.898056
	25.800833 -108.833056
	25.673056 -108.936944
	25.591111 -109.088056
	25.667222 -109.221111
	25.588611 -109.163611
	25.633056 -109.262500
	25.666389 -109.359444
	25.756111 -109.350556
	25.737778 -109.403056
	25.849444 -109.397222
	26.003056 -109.433333
	26.139722 -109.341389
	26.297222 -109.261667
	26.153611 -109.285278
	26.319444 -109.231667
	26.258333 -109.151944
	26.284444 -109.084722
	26.355278 -109.172222
	26.430000 -109.239444
	26.570000 -109.318056
	26.680833 -109.448333
	26.746111 -109.508889
	26.695278 -109.497222
	26.672500 -109.677222
	26.757222 -109.827500
	26.918889 -109.893056
	26.948889 -109.902500
	27.074444 -109.936111
	27.107500 -110.089722
	27.164167 -110.289444
	27.257500 -110.406667
	27.325833 -110.453056
	27.394722 -110.553611
	27.565556 -110.594444
	27.671389 -110.583611
	27.741667 -110.561389
	27.838056 -110.583611
	27.887222 -110.603611
	27.911944 -110.741667
	27.959167 -110.824167
	27.894444 -110.859167
	27.903611 -110.962500
	27.946389 -111.067778
	28.020278 -111.194444
	28.147222 -111.306389
	28.283333 -111.405556
	28.378333 -111.475556
	28.448889 -111.658333
	28.584167 -111.760556
	28.697778 -111.888333
	28.757500 -111.880278
	28.833056 -111.968889
	28.947778 -112.096389
	29.078333 -112.176111
	29.225278 -112.205000
	29.330833 -112.313889
	29.373611 -112.410556
	29.533056 -112.419722
	29.666944 -112.525833
	29.792778 -112.617778
	29.918333 -112.709722
	30.056944 -112.754167
	30.246389 -112.782778
	30.355000 -112.843889
	30.500833 -112.934722
	30.631389 -113.042500
	30.793056 -113.111111
	30.978056 -113.085556
	31.020278 -113.083611
	31.151944 -113.036944
	31.220278 -113.125000
	31.272222 -113.226944
	31.249722 -113.291667
	31.287500 -113.488056
	31.352778 -113.611667
	31.516944 -113.670833
	31.586667 -113.856111
	31.644444 -113.980000
	31.532222 -113.975556
	31.503056 -114.163333
	31.593056 -114.322500
	31.680833 -114.486111
	31.766944 -114.637222
	31.829167 -114.816389
	31.918611 -114.976389
	31.905556 -114.974444
	31.803333 -114.840278
	31.643611 -114.779444
	31.481667 -114.855833
	31.279444 -114.873611
	31.091389 -114.852778
	30.966111 -114.768889
	30.814444 -114.686944
	30.615278 -114.681111
	30.456667 -114.628611
	30.273611 -114.642222
	30.120556 -114.602500
	29.983056 -114.502500
	29.862778 -114.393333
	29.773611 -114.281944
	29.692500 -114.141111
	29.577500 -114.013611
	29.477222 -113.881111
	29.367222 -113.748333
	29.234444 -113.648889
	29.110278 -113.548333
	28.956389 -113.546389
	28.943333 -113.460278
	28.897222 -113.351389
	28.812778 -113.278611
	28.725000 -113.174722
	28.548056 -113.126667
	28.435556 -113.004167
	28.401389 -112.869722
	28.233333 -112.827222
	28.074722 -112.775000
	27.925278 -112.735556
	27.780000 -112.698611
	27.658889 -112.595278
	27.583611 -112.444444
	27.475556 -112.310833
	27.304722 -112.257778
	27.210833 -112.229444
	27.136667 -112.078333
	27.068611 -111.975556
	26.936389 -111.980556
	26.804444 -111.893056
	26.659722 -111.853333
	26.556111 -111.726111
	26.678333 -111.760833
	26.821667 -111.850556
	26.864722 -111.767500
	26.755278 -111.635278
	26.600833 -111.560833
	26.503056 -111.449167
	26.358611 -111.431389
	26.222222 -111.389444
	26.067500 -111.325833
	25.906389 -111.337500
	25.755833 -111.273611
	25.611389 -111.187778
	25.528611 -111.050278
	25.375278 -110.993056
	25.222500 -110.922500
	25.077222 -110.836667
	24.960833 -110.723056
	24.796944 -110.668333
	24.624444 -110.733611
	24.440833 -110.695000
	24.288056 -110.616389
	24.210278 -110.455833
	24.160000 -110.340000
	24.123889 -110.333333
	24.259444 -110.283889
	24.351944 -110.213611
	24.222778 -110.107222
	24.113056 -109.977500
	24.043056 -109.857778
	23.935000 -109.824444
	23.813056 -109.711111
	23.651111 -109.673611
	23.580000 -109.496667
	23.441944 -109.406667
	23.281667 -109.432222
	23.129444 -109.512778
	23.050556 -109.669444
	22.937778 -109.789444
	22.863889 -109.951944
	22.978333 -110.075278
	23.156389 -110.120278
	23.328333 -110.171944
	23.459444 -110.265833
	23.598056 -110.359722
	23.673889 -110.530000
	23.773056 -110.673333
	23.893333 -110.790000
	23.999167 -110.924167
	24.115278 -111.046944
	24.193889 -111.201389
	24.278889 -111.354722
	24.331389 -111.446111
	24.357778 -111.471111
	24.463889 -111.605556
	24.582222 -111.695000
	24.530556 -111.771944
	24.646667 -111.829722
	24.756667 -111.923889
	24.889167 -112.013056
	24.757500 -111.973889
	24.846667 -112.035000
	24.752222 -112.090556
	24.892222 -112.118333
	25.019722 -112.095556
	24.894167 -112.179444
	25.053889 -112.124167
	25.223333 -112.097222
	25.405000 -112.072500
	25.556111 -112.073056
	25.686111 -112.090556
	25.535833 -112.111389
	25.741667 -112.103611
	25.898889 -112.169444
	26.045278 -112.255000
	26.150556 -112.345278
	26.291667 -112.437778
	26.318611 -112.565000
	26.371944 -112.718056
	26.459444 -112.832500
	26.549167 -112.979444
	26.658611 -113.101111
	26.703333 -113.215000
	26.838611 -113.166111
	26.970278 -113.178611
	26.817500 -113.241389
	26.751944 -113.273611
	26.822222 -113.441944
	26.792222 -113.508611
	26.771944 -113.643056
	26.899167 -113.758611
	26.998056 -113.895278
	27.037222 -114.055556
	27.151389 -114.181389
	27.178333 -114.359167
	27.266111 -114.476944
	27.432778 -114.538333
	27.518611 -114.698333
	27.635556 -114.823056
	27.681111 -114.919722
	27.773333 -115.025278
	27.829167 -114.977778
	27.814444 -114.776944
	27.773333 -114.590278
	27.826667 -114.411944
	27.791111 -114.336389
	27.696944 -114.185000
	27.692222 -114.001944
	27.755278 -114.069167
	27.761667 -114.219167
	27.878056 -114.310000
	28.000833 -114.207222
	27.965556 -114.161111
	28.131944 -114.115278
	28.277778 -114.169722
	28.424722 -114.087222
	28.581389 -114.110833
	28.678611 -114.238889
	28.788056 -114.340000
	28.904167 -114.435833
	28.987222 -114.567222
	29.117222 -114.652500
	29.226944 -114.776389
	29.334722 -114.912500
	29.413889 -115.080000
	29.489167 -115.233056
	29.569167 -115.401667
	29.657500 -115.547500
	29.761944 -115.685278
	29.934722 -115.732778
	30.068056 -115.783056
	30.260000 -115.801111
	30.394722 -115.904167
	30.488611 -115.966667
	30.406667 -115.996389
	30.501389 -116.038333
	30.711667 -116.037500
	30.853611 -116.132222
	30.963333 -116.266944
	31.089722 -116.301667
	31.252778 -116.371389
	31.386111 -116.476667
	31.498611 -116.607500
	31.615556 -116.649167
	31.752778 -116.719167
	31.824444 -116.598056
	31.920278 -116.748056
	32.013889 -116.860833
	32.203611 -116.899167
	32.313611 -117.034444
	32.461111 -117.123611
	32.625278 -117.166111
	32.636944 -117.158056
	32.715556 -117.182500
	32.713611 -117.264722
	32.883333 -117.249444
	21.333889 -106.195556
	21.308056 -106.277222
	21.501389 -106.340556
	21.426389 -106.454167
	25.089167 -108.212222
	25.438056 -108.871667
	25.395000 -108.853611
	25.511944 -108.845556
		24.368889 -109.915556
	24.228889 -109.823889
	24.158889 -109.850000
	24.318889 -109.917500
	24.511944 -110.322500
	24.428056 -110.349167
	24.558056 -110.401944
	25.055556 -110.656667
	24.929444 -110.546111
	24.941389 -110.640833
	25.093056 -110.699722
	25.313333 -110.691944
	25.619444 -110.790833
	25.697778 -111.039167
	25.773889 -111.248333
	26.016667 -111.097222
	25.971389 -111.141944
	25.803611 -111.213056
	25.975556 -111.184444
	26.098056 -111.276667
	27.354444 -110.580278
	27.358333 -110.602500
	27.198889 -112.086667
	29.230000 -112.356944
	29.163056 -112.258611
	29.001389 -112.200556
	28.828056 -112.258889
	28.776667 -112.363889
	28.853889 -112.530833
	28.973611 -112.484167
	29.162500 -112.470833
	28.675556 -112.557222
	28.647222 -112.801111
	28.640833 -112.834722
	28.723611 -112.944722
	28.909722 -113.039167
		29.583611 -113.588611
	29.521944 -113.454722
	29.380278 -113.370556
	29.298889 -113.246667
	29.166389 -113.189167
	29.017778 -113.139722
	29.118333 -113.283611
	29.227500 -113.417222
	29.352222 -113.532500
	29.493611 -113.576111
	31.691111 -114.724444
	31.786667 -114.745000
	31.734167 -114.649444
		28.303056 -115.543333
	28.030833 -115.170000
	28.214722 -115.159167
	28.370278 -115.233056
	28.218889 -115.254444
	28.091667 -115.348889
	27.888611 -115.213056
	27.741667 -114.238333
	27.826111 -114.296389
	25.407778 -112.091389
	25.359167 -112.112778
	25.230000 -112.127222
	25.044444 -112.172500
	24.871111 -112.202500
	24.714722 -112.132778
	24.581111 -112.063333
	24.596111 -112.108611
	24.727500 -112.154722
	24.799722 -112.275278
	24.925833 -112.233056
	25.107778 -112.176111
	25.281944 -112.135833
	24.528333 -111.828611
	24.423333 -111.726389
	24.373889 -111.756111
	24.464444 -111.907778
	24.385556 -111.652222
	24.351944 -111.506667
	27.086389 -110.001667
	27.075000 -110.007778
	21.746389 -106.676944
	21.695833 -106.539722
	21.557778 -106.503611
	21.565556 -106.621389
	17.090556 -100.404722
	17.043333 -100.299444
	17.050000 -100.364722
	19.003056 -104.227500
	18.977222 -104.050278
	18.973889 -104.129444
	19.035278 -104.310833
	22.191389 -105.348611
	22.713056 -105.672778
	22.613889 -105.650556
	22.431389 -105.631111
	22.246944 -105.601667
	22.168056 -105.510556
	22.069167 -105.498056
	22.132500 -105.570000
	22.301111 -105.621667
	22.479444 -105.660833
	22.538611 -105.690833
	22.711389 -105.710278
	22.796667 -105.840278
	22.811667 -105.937778
	23.055833 -106.159722
	22.976111 -106.019722
	22.895000 -106.063611
	23.028611 -106.161667
	24.179444 -107.289167
	24.156667 -107.166389
	24.053056 -107.059444
	24.038611 -107.096944
	24.015000 -107.078056
	24.114167 -107.205000
	24.208889 -107.352222
	24.884444 -108.098333
	31.972778 -114.854722
	31.901667 -114.702778
	31.860833 -114.752222
	31.967500 -114.890833
	27.861944 -114.091389
	27.855833 -114.209444
	27.718889 -113.915000
	27.661667 -113.926389
	27.573056 -113.913056
	27.735278 -113.953889
33.094722 -117.315833
33.239722 -117.406667
33.363611 -117.527778
33.470556 -117.672500
33.571389 -117.826944
33.662500 -117.994722
33.767778 -118.141389
33.717778 -118.277778
33.797222 -118.409722
33.951389 -118.441667
34.050000 -118.579167
34.015556 -118.797778
34.073333 -118.999722
34.113889 -119.129167
34.230556 -119.258889
34.330278 -119.389444
34.417778 -119.563056
34.418333 -119.765556
34.453611 -119.963333
34.473333 -120.189722
34.455833 -120.431944
34.563889 -120.561944
34.693333 -120.593333
34.866111 -120.600278
35.015833 -120.614444
35.168056 -120.675833
35.219167 -120.845278
35.325278 -120.839444
35.448611 -120.897222
35.542222 -121.060000
35.646389 -121.187222
35.773333 -121.301667
35.891111 -121.435000
36.025833 -121.545556
36.166944 -121.647778
36.260556 -121.813889
36.410278 -121.883056
36.562500 -121.907778
36.616111 -121.841944
36.730556 -121.745000
36.873333 -121.794722
36.974167 -121.933056
36.985833 -122.124722
32.896389 -118.425556
32.819167 -118.418056
32.941944 -118.540833
33.021111 -118.546111
33.420556 -118.368333
33.320833 -118.335556
33.401111 -118.467778
33.488056 -118.567222
33.215000 -119.465000
33.282500 -119.506389
34.041667 -119.694444
34.048056 -119.524167
33.978333 -119.686944
34.011667 -119.881944
34.034444 -120.056944
33.954167 -119.983889
33.927778 -120.164444
34.013889 -120.168889
34.031944 -120.376111
34.062500 -120.341667
32.432778 -115.583611
32.272500 -115.523333
32.187500 -115.559722
32.310833 -115.679167
32.431111 -115.705833
32.565000 -115.695833

